%YAML 1.1
%TAG !u! tag:unity3d.com,2011:
--- !u!162 &1
EditorUserSettings:
  m_ObjectHideFlags: 0
  serializedVersion: 4
  m_ConfigSettings:
    RecentlyUsedScenePath-0:
      value: 2242470311464676022d2f1d38167a5f35272d6a756715332827187cc1d00178bba923e7ee2e26
      flags: 0
    RecentlyUsedScenePath-1:
      value: 2242470311464676022d2f1d38167a5f35272d6a7d7869032e2c1336adc3040da2b666a7f234362820
      flags: 0
    RecentlyUsedScenePath-2:
      value: 2242470311464676022d2f1d38167a5f35272d6a7d7969032e2c1336adc3040da2b667a7f234362820
      flags: 0
    RecentlyUsedScenePath-3:
      value: 2242470311464676022d2f1d38167a5f35272d6a7b6715332827187cc1d00178b5a923e7ee2e26
      flags: 0
    RecentlyUsedScenePath-4:
      value: 2242470311464676022d2f1d38167a5f35272d6a796715332827187cc1d00178b7a923e7ee2e26
      flags: 0
    RecentlyUsedScenePath-5:
      value: 2242470311464676022d2f1d38167a5f35272d6a786715332827187cc1d00178b6a923e7ee2e26
      flags: 0
    RecentlyUsedScenePath-6:
      value: 2242470311464676022d2f1d38167a5f35272d6a7e6715332827187cc1d00178b0a923e7ee2e26
      flags: 0
    RecentlyUsedScenePath-7:
      value: 2242470311464676022d2f1d38167a5f35272d6a7f6715332827187cc1d00178b1a923e7ee2e26
      flags: 0
    RecentlyUsedScenePath-8:
      value: 2242470311464676022d2f1d38167a5f35272d6a7a6715332827187cc1d00178b4a923e7ee2e26
      flags: 0
    RecentlyUsedScenePath-9:
      value: 2242470311464676022d2f1d38167a5f35272d6a7d6715332827187cc1d00178b3a923e7ee2e26
      flags: 0
    vcSharedLogLevel:
      value: 0d5e400f0650
      flags: 0
  m_VCAutomaticAdd: 1
  m_VCDebugCom: 0
  m_VCDebugCmd: 0
  m_VCDebugOut: 0
  m_SemanticMergeMode: 2
  m_VCShowFailedCheckout: 1
  m_VCOverwriteFailedCheckoutAssets: 1
  m_VCProjectOverlayIcons: 1
  m_VCHierarchyOverlayIcons: 1
  m_VCOtherOverlayIcons: 1
  m_VCAllowAsyncUpdate: 1
